<?xml version="1.0" encoding="UTF-8"?>
<testsuite name="in.reqres.LoginTests" tests="5" skipped="0" failures="0" errors="0" timestamp="2023-07-21T09:40:38" hostname="LAPTOP-PV928RTV" time="3.156">
  <properties/>
  <testcase name="successfulGetListOfUsers()" classname="in.reqres.LoginTests" time="1.99"/>
  <testcase name="negativeUserNotFoundTest()" classname="in.reqres.LoginTests" time="0.315"/>
  <testcase name="successfulCreatingOfUser()" classname="in.reqres.LoginTests" time="0.291"/>
  <testcase name="successfulDeleteOfUser204()" classname="in.reqres.LoginTests" time="0.276"/>
  <testcase name="successfulGetTokenAfterRegistration()" classname="in.reqres.LoginTests" time="0.28"/>
  <system-out><![CDATA[Request URI:	https://reqres.in/api/users?page=2
Request method:	GET
Body:			<none>
HTTP/1.1 200 OK
{
    "page": 2,
    "per_page": 6,
    "total": 12,
    "total_pages": 2,
    "data": [
        {
            "id": 7,
            "email": "michael.lawson@reqres.in",
            "first_name": "Michael",
            "last_name": "Lawson",
            "avatar": "https://reqres.in/img/faces/7-image.jpg"
        },
        {
            "id": 8,
            "email": "lindsay.ferguson@reqres.in",
            "first_name": "Lindsay",
            "last_name": "Ferguson",
            "avatar": "https://reqres.in/img/faces/8-image.jpg"
        },
        {
            "id": 9,
            "email": "tobias.funke@reqres.in",
            "first_name": "Tobias",
            "last_name": "Funke",
            "avatar": "https://reqres.in/img/faces/9-image.jpg"
        },
        {
            "id": 10,
            "email": "byron.fields@reqres.in",
            "first_name": "Byron",
            "last_name": "Fields",
            "avatar": "https://reqres.in/img/faces/10-image.jpg"
        },
        {
            "id": 11,
            "email": "george.edwards@reqres.in",
            "first_name": "George",
            "last_name": "Edwards",
            "avatar": "https://reqres.in/img/faces/11-image.jpg"
        },
        {
            "id": 12,
            "email": "rachel.howell@reqres.in",
            "first_name": "Rachel",
            "last_name": "Howell",
            "avatar": "https://reqres.in/img/faces/12-image.jpg"
        }
    ],
    "support": {
        "url": "https://reqres.in/#support-heading",
        "text": "To keep ReqRes free, contributions towards server costs are appreciated!"
    }
}
Request URI:	https://reqres.in/api/unknown/23
Request method:	GET
Body:			<none>
HTTP/1.1 404 Not Found
{
    
}
Request URI:	https://reqres.in/api/users
Request method:	POST
Body:
{
    "name": "morpheus",
    "job": "leader"
}
HTTP/1.1 201 Created
{
    "name": "morpheus",
    "job": "leader",
    "id": "12",
    "createdAt": "2023-07-21T09:40:45.295Z"
}
Request URI:	https://reqres.in/api/users/2
Request method:	DELETE
Body:			<none>
HTTP/1.1 204 No Content

Request URI:	https://reqres.in/api/register
Request method:	POST
Body:
{
    "email": "eve.holt@reqres.in",
    "password": "pistol"
}
HTTP/1.1 200 OK
{
    "id": 4,
    "token": "QpwL5tke4Pnpja7X4"
}
]]></system-out>
  <system-err><![CDATA[]]></system-err>
</testsuite>
